﻿{
  "version": "1.0.0-*",

  "dependencies": {
    "NETStandard.Library": "1.5.0-rc2-24027",
    "dotnet-test-xunit": "1.0.0-rc2-build10015",
    "xunit": "2.1.0-rc2-build3176"
  },

  "frameworks": {
    "netcoreapp1.0": {
      "dependencies": {
        "Microsoft.NETCore.App": "1.0.0-rc2-3002702"
      },
      "imports": [
        "dnxcore50",
        "portable-net45+win8",
        "dotnet5.6"
      ]
    }
  }
}
