{
  "version": "1.0.0-*",

  "dependencies": {
    "NETStandard.Library": "1.5.0-rc2-24027",
    "Sandbox.ProgrammingChallengeA.Logic": "1.0.0-*",
    "dotnet-test-xunit": "1.0.0-rc2-build10015",
    "xunit": "2.1.0-rc2-build3176",
    "Sandbox.Libraries.Tests": "1.0.0-*"
  },
  "testRunner": "xunit",
  "frameworks": {
    "netcoreapp1.0": {
      "dependencies": {
        "Microsoft.NETCore.App": "1.0.0-rc2-3002702"
      },
      "imports": [
        "dnxcore50",
        "portable-net45+win8",
        "dotnet5.6"
      ]
    }
  },

  "runtimes": {
    "win10-x64": { },
    "win8-x64": { },
    "win7-x64": { }
  }
}
